%YAML 1.1
%TAG !u! tag:unity3d.com,2011:
--- !u!1045 &1
EditorBuildSettings:
  m_ObjectHideFlags: 0
  serializedVersion: 2
  m_Scenes:
  - enabled: 1
    path: Assets/Scenes/MainMenu.unity
    guid: 9fc0d4010bbf28b4594072e72b8655ab
  - enabled: 1
    path: Assets/Scenes/SettingsMenu.unity
    guid: eca10a6569b7bb44295c85c89db173e2
  - enabled: 1
    path: Assets/Scenes/PlayScene.unity
    guid: d07577dd9835d4a4091b331129562ef1
  m_configObjects: {}
